waves_pipelined.vcd
$date
	Wed Jul 01 07:12:01 2026
$end
$version
	Icarus Verilog
$end
$timescale
	1ps
$end
$scope module pipeline_tb $end
$var reg 1 ! clk $end
$var integer 32 " cycle_num [31:0] $end
$scope module dut $end
$var wire 1 ! clk $end
$var wire 1 # ex_branch_taken $end
$var wire 32 $ ex_branch_target [31:0] $end
$var wire 1 % id_ex_flush $end
$var wire 32 & wb_write_back_data [31:0] $end
$var wire 1 ' wb_reg_write $end
$var wire 5 ( wb_rd_addr [4:0] $end
$var wire 1 ) wb_mem_to_reg $end
$var wire 32 * wb_mem_read_data [31:0] $end
$var wire 32 + wb_debug_pc [31:0] $end
$var wire 32 , wb_alu_result [31:0] $end
$var wire 1 - stall $end
$var wire 32 . mem_rs2_data [31:0] $end
$var wire 1 / mem_reg_write $end
$var wire 32 0 mem_read_data [31:0] $end
$var wire 5 1 mem_rd_addr [4:0] $end
$var wire 1 2 mem_mem_write $end
$var wire 1 3 mem_mem_to_reg $end
$var wire 1 4 mem_mem_read $end
$var wire 32 5 mem_debug_pc [31:0] $end
$var wire 32 6 mem_branch_target [31:0] $end
$var wire 1 7 mem_branch_taken $end
$var wire 32 8 mem_alu_result [31:0] $end
$var wire 32 9 if_pc_plus4 [31:0] $end
$var wire 32 : if_pc [31:0] $end
$var wire 32 ; if_instruction [31:0] $end
$var wire 32 < id_rs2_data [31:0] $end
$var wire 5 = id_rs2_addr [4:0] $end
$var wire 32 > id_rs1_data [31:0] $end
$var wire 5 ? id_rs1_addr [4:0] $end
$var wire 1 @ id_reg_write $end
$var wire 5 A id_rd_addr [4:0] $end
$var wire 32 B id_pc_plus4 [31:0] $end
$var wire 32 C id_pc [31:0] $end
$var wire 7 D id_opcode [6:0] $end
$var wire 1 E id_mem_write $end
$var wire 1 F id_mem_to_reg $end
$var wire 1 G id_mem_read $end
$var wire 32 H id_instruction [31:0] $end
$var wire 32 I id_imm [31:0] $end
$var wire 1 J id_funct7_5 $end
$var wire 3 K id_funct3 [2:0] $end
$var wire 32 L id_branch_target [31:0] $end
$var wire 1 M id_branch $end
$var wire 1 N id_alu_src $end
$var wire 2 O id_alu_op [1:0] $end
$var wire 2 P forward_b [1:0] $end
$var wire 2 Q forward_a [1:0] $end
$var wire 32 R ex_rs2_data [31:0] $end
$var wire 5 S ex_rs2_addr [4:0] $end
$var wire 32 T ex_rs1_data [31:0] $end
$var wire 5 U ex_rs1_addr [4:0] $end
$var wire 1 V ex_reg_write $end
$var wire 5 W ex_rd_addr [4:0] $end
$var wire 32 X ex_pc_plus4 [31:0] $end
$var wire 32 Y ex_operand_b [31:0] $end
$var wire 1 Z ex_mem_write $end
$var wire 1 [ ex_mem_to_reg $end
$var wire 1 \ ex_mem_read $end
$var wire 32 ] ex_imm [31:0] $end
$var wire 32 ^ ex_debug_pc [31:0] $end
$var wire 32 _ ex_branch_target_staged [31:0] $end
$var wire 1 ` ex_branch $end
$var wire 1 a ex_alu_zero $end
$var wire 1 b ex_alu_src $end
$var wire 32 c ex_alu_result [31:0] $end
$var wire 2 d ex_alu_op [1:0] $end
$var parameter 88 e INIT_FILE $end
$var reg 32 f ex_operand_a [31:0] $end
$var reg 32 g forwarded_rs2 [31:0] $end
$scope module u_alu $end
$var wire 32 h operand_a [31:0] $end
$var wire 32 i operand_b [31:0] $end
$var wire 1 a zero $end
$var wire 2 j alu_op [1:0] $end
$var parameter 2 k ALU_ADD $end
$var parameter 2 l ALU_AND $end
$var parameter 2 m ALU_OR $end
$var parameter 2 n ALU_SUB $end
$var reg 32 o result [31:0] $end
$upscope $end
$scope module u_control $end
$var wire 3 p funct3 [2:0] $end
$var wire 1 J funct7_5 $end
$var wire 7 q opcode [6:0] $end
$var parameter 2 r ALU_ADD $end
$var parameter 2 s ALU_AND $end
$var parameter 2 t ALU_OR $end
$var parameter 2 u ALU_SUB $end
$var parameter 7 v OPC_ADDI $end
$var parameter 7 w OPC_BRANCH $end
$var parameter 7 x OPC_LOAD $end
$var parameter 7 y OPC_RTYPE $end
$var parameter 7 z OPC_STORE $end
$var reg 2 { alu_op [1:0] $end
$var reg 1 N alu_src $end
$var reg 1 M branch $end
$var reg 1 G mem_read $end
$var reg 1 F mem_to_reg $end
$var reg 1 E mem_write $end
$var reg 1 @ reg_write $end
$upscope $end
$scope module u_dmem $end
$var wire 1 ! clk $end
$var wire 32 | read_data [31:0] $end
$var wire 32 } write_data [31:0] $end
$var wire 1 2 mem_write $end
$var wire 1 4 mem_read $end
$var wire 32 ~ addr [31:0] $end
$var parameter 32 !" MEM_DEPTH_WORDS $end
$scope begin $ivl_for_loop2 $end
$var integer 32 "" i [31:0] $end
$upscope $end
$upscope $end
$scope module u_ex_mem $end
$var wire 32 #" alu_result_in [31:0] $end
$var wire 1 # branch_taken_in $end
$var wire 32 $" branch_target_in [31:0] $end
$var wire 1 ! clk $end
$var wire 32 %" rs2_data_in [31:0] $end
$var wire 1 V reg_write_in $end
$var wire 5 &" rd_addr_in [4:0] $end
$var wire 1 Z mem_write_in $end
$var wire 1 [ mem_to_reg_in $end
$var wire 1 \ mem_read_in $end
$var wire 32 '" debug_pc_in [31:0] $end
$var reg 32 (" alu_result_out [31:0] $end
$var reg 1 7 branch_taken_out $end
$var reg 32 )" branch_target_out [31:0] $end
$var reg 32 *" debug_pc_out [31:0] $end
$var reg 1 4 mem_read_out $end
$var reg 1 3 mem_to_reg_out $end
$var reg 1 2 mem_write_out $end
$var reg 5 +" rd_addr_out [4:0] $end
$var reg 1 / reg_write_out $end
$var reg 32 ," rs2_data_out [31:0] $end
$upscope $end
$scope module u_forward $end
$var wire 5 -" mem_rd_addr [4:0] $end
$var wire 1 / mem_reg_write $end
$var wire 1 ' wb_reg_write $end
$var wire 5 ." wb_rd_addr [4:0] $end
$var wire 5 /" ex_rs2_addr [4:0] $end
$var wire 5 0" ex_rs1_addr [4:0] $end
$var reg 2 1" forward_a [1:0] $end
$var reg 2 2" forward_b [1:0] $end
$upscope $end
$scope module u_hazard $end
$var wire 5 3" id_rs1_addr [4:0] $end
$var wire 5 4" id_rs2_addr [4:0] $end
$var wire 5 5" ex_rd_addr [4:0] $end
$var wire 1 \ ex_mem_read $end
$var reg 1 - stall $end
$upscope $end
$scope module u_id_ex $end
$var wire 2 6" alu_op_in [1:0] $end
$var wire 1 N alu_src_in $end
$var wire 1 M branch_in $end
$var wire 32 7" branch_target_in [31:0] $end
$var wire 1 ! clk $end
$var wire 1 % flush $end
$var wire 1 G mem_read_in $end
$var wire 1 F mem_to_reg_in $end
$var wire 1 E mem_write_in $end
$var wire 5 8" rd_addr_in [4:0] $end
$var wire 1 @ reg_write_in $end
$var wire 5 9" rs1_addr_in [4:0] $end
$var wire 5 :" rs2_addr_in [4:0] $end
$var wire 32 ;" rs2_data_in [31:0] $end
$var wire 32 <" rs1_data_in [31:0] $end
$var wire 32 =" pc_plus4_in [31:0] $end
$var wire 32 >" imm_in [31:0] $end
$var wire 32 ?" debug_pc_in [31:0] $end
$var reg 2 @" alu_op_out [1:0] $end
$var reg 1 b alu_src_out $end
$var reg 1 ` branch_out $end
$var reg 32 A" branch_target_out [31:0] $end
$var reg 32 B" debug_pc_out [31:0] $end
$var reg 32 C" imm_out [31:0] $end
$var reg 1 \ mem_read_out $end
$var reg 1 [ mem_to_reg_out $end
$var reg 1 Z mem_write_out $end
$var reg 32 D" pc_plus4_out [31:0] $end
$var reg 5 E" rd_addr_out [4:0] $end
$var reg 1 V reg_write_out $end
$var reg 5 F" rs1_addr_out [4:0] $end
$var reg 32 G" rs1_data_out [31:0] $end
$var reg 5 H" rs2_addr_out [4:0] $end
$var reg 32 I" rs2_data_out [31:0] $end
$upscope $end
$scope module u_if_id $end
$var wire 1 ! clk $end
$var wire 1 # flush $end
$var wire 32 J" pc_plus4_in [31:0] $end
$var wire 1 - stall $end
$var wire 32 K" pc_in [31:0] $end
$var wire 32 L" instruction_in [31:0] $end
$var reg 32 M" instruction_out [31:0] $end
$var reg 32 N" pc_out [31:0] $end
$var reg 32 O" pc_plus4_out [31:0] $end
$upscope $end
$scope module u_imem $end
$var wire 32 P" instruction [31:0] $end
$var wire 32 Q" addr [31:0] $end
$var parameter 88 R" INIT_FILE $end
$var parameter 32 S" MEM_DEPTH_WORDS $end
$scope begin $ivl_for_loop1 $end
$var integer 32 T" i [31:0] $end
$upscope $end
$upscope $end
$scope module u_immgen $end
$var wire 32 U" instruction [31:0] $end
$var wire 1 V" sign_bit $end
$var wire 5 W" s_imm_lo [4:0] $end
$var wire 7 X" s_imm_hi [6:0] $end
$var wire 7 Y" opcode [6:0] $end
$var wire 12 Z" i_imm_bits [11:0] $end
$var wire 4 [" b_imm_4_1 [3:0] $end
$var wire 1 \" b_imm_11 $end
$var wire 6 ]" b_imm_10_5 [5:0] $end
$var parameter 7 ^" OPC_ADDI $end
$var parameter 7 _" OPC_BRANCH $end
$var parameter 7 `" OPC_LOAD $end
$var parameter 7 a" OPC_RTYPE $end
$var parameter 7 b" OPC_STORE $end
$var reg 32 c" imm_out [31:0] $end
$upscope $end
$scope module u_mem_wb $end
$var wire 32 d" alu_result_in [31:0] $end
$var wire 1 ! clk $end
$var wire 32 e" debug_pc_in [31:0] $end
$var wire 32 f" mem_read_data_in [31:0] $end
$var wire 1 3 mem_to_reg_in $end
$var wire 5 g" rd_addr_in [4:0] $end
$var wire 1 / reg_write_in $end
$var reg 32 h" alu_result_out [31:0] $end
$var reg 32 i" debug_pc_out [31:0] $end
$var reg 32 j" mem_read_data_out [31:0] $end
$var reg 1 ) mem_to_reg_out $end
$var reg 5 k" rd_addr_out [4:0] $end
$var reg 1 ' reg_write_out $end
$upscope $end
$scope module u_pc $end
$var wire 1 # branch_taken $end
$var wire 32 l" branch_target [31:0] $end
$var wire 1 ! clk $end
$var wire 1 - stall $end
$var wire 32 m" pc_next [31:0] $end
$var reg 32 n" pc_current [31:0] $end
$upscope $end
$scope module u_regfile $end
$var wire 1 ! clk $end
$var wire 5 o" rd_addr [4:0] $end
$var wire 32 p" rd_data [31:0] $end
$var wire 1 ' reg_write $end
$var wire 5 q" rs1_addr [4:0] $end
$var wire 5 r" rs2_addr [4:0] $end
$var reg 32 s" rs1_data [31:0] $end
$var reg 32 t" rs2_data [31:0] $end
$scope begin $ivl_for_loop0 $end
$var integer 32 u" i [31:0] $end
$upscope $end
$upscope $end
$upscope $end
$scope begin $ivl_for_loop3 $end
$var integer 32 v" i [31:0] $end
$upscope $end
$upscope $end
$enddefinitions $end
$comment Show the parameter values. $end
$dumpall
b100011 b"
b110011 a"
b11 `"
b1100011 _"
b10011 ^"
b100000000 S"
b111000001110010011011110110011101110010011000010110110100101110011010000110010101111000 R"
b100000000 !"
b100011 z
b110011 y
b11 x
b1100011 w
b10011 v
b1 u
b11 t
b10 s
b0 r
b1 n
b11 m
b10 l
b0 k
b111000001110010011011110110011101110010011000010110110100101110011010000110010101111000 e
$end
#0
$dumpvars
b0 v"
b100000 u"
b0 t"
b0 s"
b0 r"
b0 q"
b0 p"
b0 o"
b0 n"
b100 m"
b0 l"
b0 k"
b0 j"
b0 i"
b0 h"
b0 g"
b0 f"
b0 e"
b0 d"
b0 c"
b0 ]"
0\"
b0 ["
b0 Z"
b10011 Y"
b0 X"
b0 W"
0V"
b10011 U"
b100000000 T"
b0 Q"
b10100000000000010010011 P"
b0 O"
b0 N"
b10011 M"
b10100000000000010010011 L"
b0 K"
b100 J"
b0 I"
b0 H"
b0 G"
b0 F"
b0 E"
b0 D"
b0 C"
b0 B"
b0 A"
b0 @"
b0 ?"
b0 >"
b0 ="
b0 <"
b0 ;"
b0 :"
b0 9"
b0 8"
b0 7"
b0 6"
b0 5"
b0 4"
b0 3"
b0 2"
b0 1"
b0 0"
b0 /"
b0 ."
b0 -"
b0 ,"
b0 +"
b0 *"
b0 )"
b0 ("
b0 '"
b0 &"
b0 %"
b0 $"
b0 #"
b100000000 ""
b0 ~
b0 }
b0 |
b0 {
b10011 q
b0 p
b0 o
b0 j
b0 i
b0 h
b0 g
b0 f
b0 d
b0 c
0b
1a
0`
b0 _
b0 ^
b0 ]
0\
0[
0Z
b0 Y
b0 X
b0 W
0V
b0 U
b0 T
b0 S
b0 R
b0 Q
b0 P
b0 O
1N
0M
b0 L
b0 K
0J
b0 I
b10011 H
0G
0F
0E
b10011 D
b0 C
b0 B
b0 A
1@
b0 ?
b0 >
b0 =
b0 <
b10100000000000010010011 ;
b0 :
b100 9
b0 8
07
b0 6
b0 5
04
03
02
b0 1
b0 0
0/
b0 .
0-
b0 ,
b0 +
b0 *
0)
b0 (
0'
b0 &
0%
b0 $
0#
b0 "
0!
$end
#5000
b101 L
b101 7"
b101 I
b101 >"
b101 c"
b1000 m"
b1100000000000100010011 ;
b1100000000000100010011 L"
b1100000000000100010011 P"
b101 Z"
b1 W"
1\"
b1 A
b1 8"
b101 =
b101 4"
b101 :"
b101 r"
b1000 9
b1000 J"
b100 :
b100 K"
b100 Q"
b100 n"
b10100000000000010010011 H
b10100000000000010010011 M"
b10100000000000010010011 U"
b100 B
b100 ="
b100 O"
1V
1b
b1 "
1!
#10000
0!
#15000
0a
b101 c
b101 o
b101 #"
b11 I
b11 >"
b11 c"
b101 Y
b101 i
b11 Z"
b10 W"
0\"
b1 ["
b10 A
b10 8"
b11 =
b11 4"
b11 :"
b11 r"
b1100 m"
b1000001000000110110011 ;
b1000001000000110110011 L"
b1000001000000110110011 P"
1/
b101 $
b101 $"
b101 l"
b101 _
b101 A"
b101 S
b101 /"
b101 H"
b1 W
b1 &"
b1 5"
b1 E"
b101 ]
b101 C"
b100 X
b100 D"
b1100000000000100010011 H
b1100000000000100010011 M"
b1100000000000100010011 U"
b1000 B
b1000 ="
b1000 O"
b111 L
b111 7"
b100 C
b100 ?"
b100 N"
b1100 9
b1100 J"
b1000 :
b1000 K"
b1000 Q"
b1000 n"
b10 "
1!
#20000
0!
#25000
b0 I
b0 >"
b0 c"
0N
1@
b11 c
b11 o
b11 #"
b10000 m"
b1000000001000001000001000110011 ;
b1000000001000001000001000110011 L"
b1000000001000001000001000110011 P"
b110011 Y"
b10 Z"
b11 W"
1\"
b11 A
b11 8"
b10 =
b10 4"
b10 :"
b10 r"
b1 ?
b1 3"
b1 9"
b1 q"
b110011 D
b110011 q
b11 Y
b11 i
b10000 9
b10000 J"
b1100 :
b1100 K"
b1100 Q"
b1100 n"
b1000001000000110110011 H
b1000001000000110110011 M"
b1000001000000110110011 U"
b1100 B
b1100 ="
b1100 O"
b1000 L
b1000 7"
b1000 C
b1000 ?"
b1000 N"
b111 $
b111 $"
b111 l"
b111 _
b111 A"
b11 S
b11 /"
b11 H"
b10 W
b10 &"
b10 5"
b10 E"
b11 ]
b11 C"
b1000 X
b1000 D"
b100 ^
b100 '"
b100 B"
b101 6
b101 )"
b1 1
b1 +"
b1 -"
b1 g"
b101 8
b101 ~
b101 ("
b101 d"
1'
b11 "
1!
#30000
0!
#35000
b101 f
b101 h
0a
b1000 c
b1000 o
b1000 #"
b1 O
b1 {
b1 6"
1@
b101 >
b101 <"
b101 s"
b101 &
b101 p"
b11 g
b11 %"
b10 P
b10 2"
b1 Q
b1 1"
b11 Y
b11 i
b10000000010 Z"
b100000 X"
b100 W"
0\"
b100000 ]"
b10 ["
b100 A
b100 8"
1J
b10100 m"
b1000001111001010110011 ;
b1000001111001010110011 L"
b1000001111001010110011 P"
b1 (
b1 ."
b1 k"
b1 o"
b101 ,
b101 h"
b111 6
b111 )"
b10 1
b10 +"
b10 -"
b10 g"
b11 8
b11 ~
b11 ("
b11 d"
b100 5
b100 *"
b100 e"
0b
b1000 $
b1000 $"
b1000 l"
b1000 _
b1000 A"
b10 S
b10 /"
b10 H"
b1 U
b1 0"
b1 F"
b11 W
b11 &"
b11 5"
b11 E"
b0 ]
b0 C"
b1100 X
b1100 D"
b1000 ^
b1000 '"
b1000 B"
b1000000001000001000001000110011 H
b1000000001000001000001000110011 M"
b1000000001000001000001000110011 U"
b10000 B
b10000 ="
b10000 O"
b1100 L
b1100 7"
b1100 C
b1100 ?"
b1100 N"
b10100 9
b10100 J"
b10000 :
b10000 K"
b10000 Q"
b10000 n"
b100 "
1!
#40000
0!
#45000
1@
b10 O
b10 {
b10 6"
b11000 m"
b1000001110001100110011 ;
b1000001110001100110011 L"
b1000001110001100110011 P"
b10 Z"
b0 X"
b101 W"
1\"
b0 ]"
b101 A
b101 8"
0J
b111 K
b111 p
b10 c
b10 o
b10 #"
b1 P
b1 2"
b0 Q
b0 1"
b11 <
b11 ;"
b11 t"
b11 &
b11 p"
b11000 9
b11000 J"
b10100 :
b10100 K"
b10100 Q"
b10100 n"
b1000001111001010110011 H
b1000001111001010110011 M"
b1000001111001010110011 U"
b10100 B
b10100 ="
b10100 O"
b10000 L
b10000 7"
b10000 C
b10000 ?"
b10000 N"
b1 d
b1 j
b1 @"
b1100 $
b1100 $"
b1100 l"
b1100 _
b1100 A"
b100 W
b100 &"
b100 5"
b100 E"
b101 T
b101 G"
b10000 X
b10000 D"
b1100 ^
b1100 '"
b1100 B"
b1000 6
b1000 )"
b11 1
b11 +"
b11 -"
b11 g"
b11 .
b11 }
b11 ,"
b1000 8
b1000 ~
b1000 ("
b1000 d"
b1000 5
b1000 *"
b1000 e"
b10 (
b10 ."
b10 k"
b10 o"
b11 ,
b11 h"
b100 +
b100 i"
b101 "
1!
#50000
0!
#55000
1@
b11 O
b11 {
b11 6"
b1000 &
b1000 p"
b0 P
b0 2"
b1 c
b1 o
b1 #"
b110 W"
0\"
b11 ["
b110 A
b110 8"
b110 K
b110 p
b11100 m"
b1100000010000000100011 ;
b1100000010000000100011 L"
b1100000010000000100011 P"
b11 (
b11 ."
b11 k"
b11 o"
b1000 ,
b1000 h"
b1000 +
b1000 i"
b1100 6
b1100 )"
b100 1
b100 +"
b100 -"
b100 g"
b10 8
b10 ~
b10 ("
b10 d"
b1100 5
b1100 *"
b1100 e"
b10 d
b10 j
b10 @"
b10000 $
b10000 $"
b10000 l"
b10000 _
b10000 A"
b101 W
b101 &"
b101 5"
b101 E"
b11 R
b11 I"
b10100 X
b10100 D"
b10000 ^
b10000 '"
b10000 B"
b1000001110001100110011 H
b1000001110001100110011 M"
b1000001110001100110011 U"
b11000 B
b11000 ="
b11000 O"
b10100 L
b10100 7"
b10100 C
b10100 ?"
b10100 N"
b11100 9
b11100 J"
b11000 :
b11000 K"
b11000 Q"
b11000 n"
b110 "
1!
#60000
0!
#65000
b1000 <
b1000 ;"
b1000 t"
b0 >
b0 <"
b0 s"
1E
1N
0@
b0 O
b0 {
b0 6"
b100000 m"
b10001110000011 ;
b10001110000011 L"
b10001110000011 P"
b100011 Y"
b11 Z"
b0 W"
b0 ["
b0 A
b0 8"
b11 =
b11 4"
b11 :"
b11 r"
b0 ?
b0 3"
b0 9"
b0 q"
b10 K
b10 p
b100011 D
b100011 q
b111 c
b111 o
b111 #"
b10 &
b10 p"
b100000 9
b100000 J"
b11100 :
b11100 K"
b11100 Q"
b11100 n"
b1100000010000000100011 H
b1100000010000000100011 M"
b1100000010000000100011 U"
b11100 B
b11100 ="
b11100 O"
b11000 L
b11000 7"
b11000 C
b11000 ?"
b11000 N"
b11 d
b11 j
b11 @"
b10100 $
b10100 $"
b10100 l"
b10100 _
b10100 A"
b110 W
b110 &"
b110 5"
b110 E"
b11000 X
b11000 D"
b10100 ^
b10100 '"
b10100 B"
b10000 6
b10000 )"
b101 1
b101 +"
b101 -"
b101 g"
b1 8
b1 ~
b1 ("
b1 d"
b10000 5
b10000 *"
b10000 e"
b100 (
b100 ."
b100 k"
b100 o"
b10 ,
b10 h"
b1100 +
b1100 i"
b111 "
1!
#70000
0!
#75000
1a
1F
1G
1@
1N
0E
b1 &
b1 p"
b0 Y
b0 i
b0 c
b0 o
b0 #"
b1000 g
b1000 %"
b0 f
b0 h
b0 <
b0 ;"
b0 t"
b11 Y"
b0 Z"
b111 W"
1\"
b11 ["
b111 A
b111 8"
b0 =
b0 4"
b0 :"
b0 r"
b11 D
b11 q
b100100 m"
b11100011000010001100011 ;
b11100011000010001100011 L"
b11100011000010001100011 P"
b101 (
b101 ."
b101 k"
b101 o"
b1 ,
b1 h"
b10000 +
b10000 i"
b10100 6
b10100 )"
b110 1
b110 +"
b110 -"
b110 g"
b111 8
b111 ~
b111 ("
b111 d"
b10100 5
b10100 *"
b10100 e"
0V
1Z
1b
b0 d
b0 j
b0 @"
b11000 $
b11000 $"
b11000 l"
b11000 _
b11000 A"
b11 S
b11 /"
b11 H"
b0 U
b0 0"
b0 F"
b0 W
b0 &"
b0 5"
b0 E"
b1000 R
b1000 I"
b0 T
b0 G"
b11100 X
b11100 D"
b11000 ^
b11000 '"
b11000 B"
b10001110000011 H
b10001110000011 M"
b10001110000011 U"
b100000 B
b100000 ="
b100000 O"
b11100 L
b11100 7"
b11100 C
b11100 ?"
b11100 N"
b100100 9
b100100 J"
b100000 :
b100000 K"
b100000 Q"
b100000 n"
b1000 "
1!
#80000
0!
#85000
1%
b1000 I
b1000 >"
b1000 c"
1-
b1000 >
b1000 <"
b1000 s"
1M
b1 O
b1 {
b1 6"
0N
0F
0G
0@
b101000 m"
b110001100000000010000010011 ;
b110001100000000010000010011 L"
b110001100000000010000010011 P"
b1100011 Y"
b111 Z"
b1000 W"
0\"
b100 ["
b1000 A
b1000 8"
b111 =
b111 4"
b111 :"
b111 r"
b11 ?
b11 3"
b11 9"
b11 q"
b0 K
b0 p
b1100011 D
b1100011 q
b0 g
b0 %"
b111 &
b111 p"
b101000 9
b101000 J"
b100100 :
b100100 K"
b100100 Q"
b100100 n"
b11100011000010001100011 H
b11100011000010001100011 M"
b11100011000010001100011 U"
b100100 B
b100100 ="
b100100 O"
b101000 L
b101000 7"
b100000 C
b100000 ?"
b100000 N"
1[
1V
0Z
1\
b11100 $
b11100 $"
b11100 l"
b11100 _
b11100 A"
b0 S
b0 /"
b0 H"
b111 W
b111 &"
b111 5"
b111 E"
b0 R
b0 I"
b100000 X
b100000 D"
b11100 ^
b11100 '"
b11100 B"
b11000 6
b11000 )"
0/
12
b0 1
b0 +"
b0 -"
b0 g"
b1000 .
b1000 }
b1000 ,"
b0 8
b0 ~
b0 ("
b0 d"
b11000 5
b11000 *"
b11000 e"
b110 (
b110 ."
b110 k"
b110 o"
b111 ,
b111 h"
b10100 +
b10100 i"
b1001 "
1!
#90000
0!
#95000
0%
b0 &
b0 p"
0-
0'
b0 (
b0 ."
b0 k"
b0 o"
b0 ,
b0 h"
b11000 +
b11000 i"
b1000 0
b1000 |
b1000 f"
b11100 6
b11100 )"
13
1/
02
14
b111 1
b111 +"
b111 -"
b111 g"
b0 .
b0 }
b0 ,"
b11100 5
b11100 *"
b11100 e"
0[
0V
0\
0b
b0 $
b0 $"
b0 l"
b0 _
b0 A"
b0 W
b0 &"
b0 5"
b0 E"
b0 X
b0 D"
b0 ^
b0 '"
b0 B"
b1010 "
1!
#100000
0!
#105000
1%
1#
b1100011 I
b1100011 >"
b1100011 c"
1N
1@
0M
b0 O
b0 {
b0 6"
b1000 Y
b1000 i
b1000 <
b1000 ;"
b1000 t"
b0 >
b0 <"
b0 s"
b101000 m"
b10101000000000010010010011 ;
b10101000000000010010010011 L"
b10101000000000010010010011 P"
b10011 Y"
b1100011 Z"
b11 X"
b11 ]"
b11 =
b11 4"
b11 :"
b11 r"
b0 ?
b0 3"
b0 9"
b0 q"
b10011 D
b10011 q
1a
b0 c
b0 o
b0 #"
b1000 g
b1000 %"
b1000 f
b1000 h
b1000 &
b1000 p"
b1 P
b1 2"
b101100 9
b101100 J"
b101000 :
b101000 K"
b101000 Q"
b101000 n"
b110001100000000010000010011 H
b110001100000000010000010011 M"
b110001100000000010000010011 U"
b101000 B
b101000 ="
b101000 O"
b10000111 L
b10000111 7"
b100100 C
b100100 ?"
b100100 N"
1`
b1 d
b1 j
b1 @"
b101000 $
b101000 $"
b101000 l"
b101000 _
b101000 A"
b111 S
b111 /"
b111 H"
b11 U
b11 0"
b11 F"
b1000 W
b1000 &"
b1000 5"
b1000 E"
b1000 ]
b1000 C"
b1000 T
b1000 G"
b100100 X
b100100 D"
b100000 ^
b100000 '"
b100000 B"
b0 6
b0 )"
03
0/
04
b0 1
b0 +"
b0 -"
b0 g"
b0 5
b0 *"
b0 e"
1)
1'
b111 (
b111 ."
b111 k"
b111 o"
b1000 *
b1000 j"
b11100 +
b11100 i"
b1011 "
1!
#110000
0!
#115000
b0 Y
b0 i
0%
b0 g
b0 %"
b0 I
b0 >"
b0 c"
b0 &
b0 p"
0#
1a
b0 c
b0 o
b0 #"
b101100 m"
b0 P
b0 2"
b0 f
b0 h
b0 <
b0 ;"
b0 t"
b0 Z"
b0 X"
b0 W"
b0 ]"
b0 ["
b0 A
b0 8"
b0 =
b0 4"
b0 :"
b0 r"
0)
0'
b0 (
b0 ."
b0 k"
b0 o"
b0 +
b0 i"
b101000 6
b101000 )"
17
b1000 1
b1000 +"
b1000 -"
b1000 g"
b1000 .
b1000 }
b1000 ,"
b100000 5
b100000 *"
b100000 e"
0`
b0 d
b0 j
b0 @"
b0 $
b0 $"
b0 l"
b0 _
b0 A"
b0 S
b0 /"
b0 H"
b0 U
b0 0"
b0 F"
b0 W
b0 &"
b0 5"
b0 E"
b0 ]
b0 C"
b0 T
b0 G"
b0 X
b0 D"
b0 ^
b0 '"
b0 B"
b10011 H
b10011 M"
b10011 U"
b0 B
b0 ="
b0 O"
b0 L
b0 7"
b0 C
b0 ?"
b0 N"
b1100 "
1!
#120000
0!
#125000
b101010 I
b101010 >"
b101010 c"
b110000 m"
b1000001000010001100011 ;
b1000001000010001100011 L"
b1000001000010001100011 P"
b101010 Z"
b1 X"
b1001 W"
1\"
b1 ]"
b100 ["
b1001 A
b1001 8"
b1010 =
b1010 4"
b1010 :"
b1010 r"
b110000 9
b110000 J"
b101100 :
b101100 K"
b101100 Q"
b101100 n"
b10101000000000010010010011 H
b10101000000000010010010011 M"
b10101000000000010010010011 U"
b101100 B
b101100 ="
b101100 O"
b1010010 L
b1010010 7"
b101000 C
b101000 ?"
b101000 N"
1V
1b
b0 6
b0 )"
07
b0 1
b0 +"
b0 -"
b0 g"
b0 .
b0 }
b0 ,"
b0 5
b0 *"
b0 e"
b1000 (
b1000 ."
b1000 k"
b1000 o"
b100000 +
b100000 i"
b1101 "
1!
#130000
0!
#135000
0a
b101010 c
b101010 o
b101010 #"
b1000 I
b1000 >"
b1000 c"
1M
b1 O
b1 {
b1 6"
0N
0@
b11 <
b11 ;"
b11 t"
b101 >
b101 <"
b101 s"
b101010 Y
b101010 i
b1100011 Y"
b10 Z"
b0 X"
b1000 W"
0\"
b0 ]"
b1000 A
b1000 8"
b10 =
b10 4"
b10 :"
b10 r"
b1 ?
b1 3"
b1 9"
b1 q"
b1100011 D
b1100011 q
b110100 m"
b100110100000000010100010011 ;
b100110100000000010100010011 L"
b100110100000000010100010011 P"
b0 (
b0 ."
b0 k"
b0 o"
b0 +
b0 i"
1/
b1010010 $
b1010010 $"
b1010010 l"
b1010010 _
b1010010 A"
b1010 S
b1010 /"
b1010 H"
b1001 W
b1001 &"
b1001 5"
b1001 E"
b101010 ]
b101010 C"
b101100 X
b101100 D"
b101000 ^
b101000 '"
b101000 B"
b1000001000010001100011 H
b1000001000010001100011 M"
b1000001000010001100011 U"
b110000 B
b110000 ="
b110000 O"
b110100 L
b110100 7"
b101100 C
b101100 ?"
b101100 N"
b110100 9
b110100 J"
b110000 :
b110000 K"
b110000 Q"
b110000 n"
b1110 "
1!
#140000
0!
#145000
b1001101 I
b1001101 >"
b1001101 c"
b0 <
b0 ;"
b0 t"
b0 >
b0 <"
b0 s"
1N
1@
0M
b0 O
b0 {
b0 6"
b111000 m"
b101100000000010110010011 ;
b101100000000010110010011 L"
b101100000000010110010011 P"
b10011 Y"
b1001101 Z"
b10 X"
b1010 W"
b10 ]"
b101 ["
b1010 A
b1010 8"
b1101 =
b1101 4"
b1101 :"
b1101 r"
b0 ?
b0 3"
b0 9"
b0 q"
b10011 D
b10011 q
b10 c
b10 o
b10 #"
b11 Y
b11 i
b0 0
b0 |
b0 f"
b11 g
b11 %"
b101 f
b101 h
b111000 9
b111000 J"
b110100 :
b110100 K"
b110100 Q"
b110100 n"
b100110100000000010100010011 H
b100110100000000010100010011 M"
b100110100000000010100010011 U"
b110100 B
b110100 ="
b110100 O"
b1111101 L
b1111101 7"
b110000 C
b110000 ?"
b110000 N"
1`
0V
0b
b1 d
b1 j
b1 @"
b110100 $
b110100 $"
b110100 l"
b110100 _
b110100 A"
b10 S
b10 /"
b10 H"
b1 U
b1 0"
b1 F"
b1000 W
b1000 &"
b1000 5"
b1000 E"
b1000 ]
b1000 C"
b11 R
b11 I"
b101 T
b101 G"
b110000 X
b110000 D"
b101100 ^
b101100 '"
b101100 B"
b1010010 6
b1010010 )"
b1001 1
b1001 +"
b1001 -"
b1001 g"
b101010 8
b101010 ~
b101010 ("
b101010 d"
b101000 5
b101000 *"
b101000 e"
1'
b1111 "
1!
#150000
0!
